[
  {
    "description": "Minimal changes on the metadata file",
    "type": "minor"
  },
  {
    "description": "Add comments",
    "type": "minor"
  },
  {
    "description": "Add Bill Of Materials(BOM) to the analysis results",
    "type": "minor"
  }
]